{
  "uid" : "ab17fc5a4eb3bca4b216b548c7f9fcbc",
  "name" : "timeline",
  "children" : [ {
    "name" : "With invalid credentials",
    "uid" : "138a28a5edc6baff",
    "parentUid" : "ab17fc5a4eb3bca4b216b548c7f9fcbc",
    "status" : "passed",
    "time" : {
      "start" : 1605214464164,
      "stop" : 1605214478697,
      "duration" : 14533
    },
    "flaky" : false,
    "newFailed" : false,
    "parameters" : [ ]
  }, {
    "name" : "Of minicart",
    "uid" : "75045179ff271fc0",
    "parentUid" : "ab17fc5a4eb3bca4b216b548c7f9fcbc",
    "status" : "broken",
    "time" : {
      "start" : 1605214508404,
      "stop" : 1605214525279,
      "duration" : 16875
    },
    "flaky" : false,
    "newFailed" : false,
    "parameters" : [ ]
  }, {
    "name" : "With valid credentials",
    "uid" : "194b7fbea82e6d6e",
    "parentUid" : "ab17fc5a4eb3bca4b216b548c7f9fcbc",
    "status" : "passed",
    "time" : {
      "start" : 1605214478697,
      "stop" : 1605214493790,
      "duration" : 15093
    },
    "flaky" : false,
    "newFailed" : false,
    "parameters" : [ ]
  }, {
    "name" : "From cart",
    "uid" : "6ebadef82238fc4e",
    "parentUid" : "ab17fc5a4eb3bca4b216b548c7f9fcbc",
    "status" : "broken",
    "time" : {
      "start" : 1605214541779,
      "stop" : 1605214558045,
      "duration" : 16266
    },
    "flaky" : false,
    "newFailed" : false,
    "parameters" : [ ]
  }, {
    "name" : "Of logout",
    "uid" : "bdc316b5055f738c",
    "parentUid" : "ab17fc5a4eb3bca4b216b548c7f9fcbc",
    "status" : "passed",
    "time" : {
      "start" : 1605214493795,
      "stop" : 1605214508404,
      "duration" : 14609
    },
    "flaky" : false,
    "newFailed" : false,
    "parameters" : [ ]
  }, {
    "name" : "With invalid data",
    "uid" : "6bbfedf9aa78c0c8",
    "parentUid" : "ab17fc5a4eb3bca4b216b548c7f9fcbc",
    "status" : "passed",
    "time" : {
      "start" : 1605214425414,
      "stop" : 1605214441779,
      "duration" : 16365
    },
    "flaky" : false,
    "newFailed" : false,
    "parameters" : [ ]
  }, {
    "name" : "Of search",
    "uid" : "fe5f4aab0e98b1d7",
    "parentUid" : "ab17fc5a4eb3bca4b216b548c7f9fcbc",
    "status" : "passed",
    "time" : {
      "start" : 1605214525279,
      "stop" : 1605214541776,
      "duration" : 16497
    },
    "flaky" : false,
    "newFailed" : false,
    "parameters" : [ ]
  }, {
    "name" : "To cart",
    "uid" : "cf6d62305afcc452",
    "parentUid" : "ab17fc5a4eb3bca4b216b548c7f9fcbc",
    "status" : "failed",
    "time" : {
      "start" : 1605214409382,
      "stop" : 1605214425405,
      "duration" : 16023
    },
    "flaky" : false,
    "newFailed" : false,
    "parameters" : [ ]
  }, {
    "name" : "With valid data",
    "uid" : "c5cdaa0406bf9e0e",
    "parentUid" : "ab17fc5a4eb3bca4b216b548c7f9fcbc",
    "status" : "passed",
    "time" : {
      "start" : 1605214441785,
      "stop" : 1605214464161,
      "duration" : 22376
    },
    "flaky" : false,
    "newFailed" : false,
    "parameters" : [ ]
  }, {
    "name" : "From minicart",
    "uid" : "406d644fad01fffd",
    "parentUid" : "ab17fc5a4eb3bca4b216b548c7f9fcbc",
    "status" : "broken",
    "time" : {
      "start" : 1605214558045,
      "stop" : 1605214571281,
      "duration" : 13236
    },
    "flaky" : false,
    "newFailed" : false,
    "parameters" : [ ]
  } ]
}